{
  "dependencies": {
    "mssql1": {
      "resourceId": "/subscriptions/[parameters('subscriptionId')]/resourceGroups/[parameters('resourceGroupName')]/providers/Microsoft.Sql/servers/eclaimsdbserver/databases/eClaims",
      "type": "mssql.azure",
      "connectionId": "eClaimsConnectionString",
      "secretStore": "AzureAppSettings"
    }
  }
}